{
  "name": "standiBovin",
  "app_id": "",
  "type": "ionic1",
  "watchPatterns": [
    "scss/**/*",
    "www/**/*",
    "!www/lib/**/*",
    "!www/**/*.map"
  ],
  "integrations": {
    "cordova": {}
  }
}
