{
  "_lang": "Portuguais",
  "_countries": [
    "Portugal",
    "Bresil"
  ],
  "currency": "$R",
  "massUnit": "kg",
  "appName": "profit4beef",
  "animals": "Animais",
  "type": "Tipo",
  "breed": "Raça",
  "inputWeight": "Peso entrada",
  "buyingPrice": "Preço de compra do animal",
  "sellingPrice": "Preço de venda",
  "price": "Preço",
  "priceType1": "R$/@",
  "priceType2": "",
  "feedsToCompare": "Dieta a comparar",
  "feed1": "Dieta 1",
  "feed2": "Dieta 2",
  "noAdditive": "Sem Aditivos",
  "additive": "Aditivos",
  "compare": "Comparar",
  "newComparison": "Nova comparação",
  "increaseFeedProfit": "Margem bruta",
  "feedPrice": "Preço da dieta por animal (R$)",
  "feedProfit": "Margem bruta ($R)",
  "placeProfit": "Margem por giro de engorda",
  "fedPerPlace": "Animais confinados ano",
  "fatteningDays": "dias",
  "parameters": "Parâmetro",
  "paramsUnit2": "Ingrediente (Kg/d)",
  "paramsUnitAdditive": "Preço ($R/d)",
  "sanitaryPeriod": "Espaço de rastreamento (dias)",
  "recompute": "Recalcular",
  "chooseLanguage": "Seleção de país",
  "language": "Idioma",
  "langMenu": "idioma",
  "valid": "Validar",
  "back": "Retorno",
  "disconnect": "desligar",
  "email": "correio eletrônico",
  "password": "Senha",
  "login": "conexão",
  "forgotPassword": "senha esquecida",
  "resultDetailMore": "Detalhe do resultado",
  "days": "d",
  "pricePerTonne": "Preço ($R / T)",
  "foodRation": "Dieta",
  "altoGrao" : "Concentrado Alto Grão",
  "milhoGrao" : "Milho grão inteiro",
  "pastoVerde" : "Pasto verde",
  "racaoPronta" : "Ração pronta",
  "volumos" : "Volumoso",
  "nucleoGraoInteiro" : "Núcleo grão inteiro",
  "milhoGraoInteiro" : "Milho grão inteiro",
  "racaoConcentra" : "Ração concentrada",
  "alimentoVolumoso" : "Alimento volumoso",
  "country" : "País"
}
